292410 886952 525
422078 374075 449
126163 248747 443
928332 270799 525
544313 770121 509
623665 635254 509
855589 862133 375
738634 605682 509
950479 340072 525
598899 55129 470
418386 17982 449
128730 382336 443
116657 910385 525
719546 621984 509
384040 287249 441
910857 269685 525
431702 940862 525
825938 800779 450
743386 615422 509
327878 463708 449
206997 96641 383
20744 596172 470
602142 587386 403
951182 722543 525
356545 993925 525
507904 54269 449
776376 827594 468
380001 240964 441
766681 590676 509
127062 533969 470
113811 38202 354
262249 90986 443
258336 500991 449
60937 159436 383
702565 46966 509
168195 186466 365
163982 816151 509
800484 611637 509
325225 12417 443
905989 147323 525
593511 427012 470
170854 664584 509
554453 808355 509
228340 661967 509
667006 872870 525
654007 279 509
456775 898872 525
55451 322327 443
707055 940840 525
720197 354806 509
686332 721698 504
622169 358174 470
49749 270412 443
229245 479187 449
902925 93413 525
534071 330351 470
102485 385613 443
242819 53613 443
388194 359100 423
726816 346045 509
393449 244571 441
27037 461928 449
932489 593864 525
212024 220981 386
620725 147564 470
21059 209676 383
301294 135254 443
924153 345433 525
381324 767601 509
7204 839903 525
333480 276883 389
187598 898444 525
859973 687307 525
65978 880803 525
772058 561547 509
180099 225606 386
355696 844559 525
999683 718513 525
197446 260518 443
810049 974042 525
956410 383345 525
515409 214776 470
678023 286953 509
187532 736367 509
718983 672485 504
153275 549852 470
145014 288743 443
694431 391639 509
803166 831421 450
354201 109528 443
749919 842737 525
524534 743532 509
500523 889959 525
301312 724321 509
635162 335813 509
368955 911824 525
656490 271448 509
51688 733402 509
481426 633214 509
817852 580349 509
649804 782097 504
387611 806284 509
678125 980993 525
219545 439182 449
952894 758219 525
117528 934960 525
234005 706384 509
346135 58025 443
720234 100044 509
99648 966803 525
715024 772483 468
573651 507016 470
973297 330387 525
761446 240489 509
834129 892790 525
902841 306070 525
582064 455411 470
803187 120650 509
874363 591856 525
775119 197165 509
480971 441154 444
52656 812026 509
242901 822138 509
80942 319234 443
730229 22162 509
737409 937283 525
356785 736092 509
119330 926072 525
400610 658950 509
331736 339272 366
920776 249326 525
59467 634757 509
829191 348613 509
970887 34410 525
197775 288946 443
118984 494235 449
608582 310312 470
334845 89427 443
735036 832710 468
825303 977875 525
639446 181333 509
605703 221007 470
959479 400464 525
964354 308888 525
417077 910081 525
355311 118778 443
997305 634849 525
85072 800508 509
30946 490471 449
553274 614499 434
812114 413216 509
678700 260086 509
166154 314284 443
470733 455155 444
864118 162049 525
576213 652083 509
930976 760689 525
177811 165928 352
56668 896296 525
504386 472341 426
974721 818737 525
296616 165773 443
75094 45442 340
16723 579887 470
252555 15789 443
741153 262087 509
272549 788378 509
476066 74590 449
22001 494887 449
492575 153660 449
699536 425666 509
726753 219176 509
863545 490828 525
185916 498186 449
384298 702476 509
557504 263892 470
547536 967876 525
628544 48285 509
780405 168069 509
180230 334896 443
311707 5874 443
296051 915106 525
385710 563213 470
871185 222603 525
934677 885885 476
165359 899378 525
88576 262768 443
256169 68850 443
975056 63720 525
345079 315390 384
6850 539673 470
488064 796658 509
308411 762832 509
476622 179624 449
392417 186528 443
135712 592900 470
566193 357291 470
298892 693454 509
796893 479863 509
750688 525252 509
425926 855495 525
952185 375366 525
759340 620273 509
612568 794550 509
479444 239378 449
333431 755075 509
443944 134578 449
793348 695978 504
914193 208755 525
744924 32812 509
123341 381657 443
798478 932201 525
518979 918850 525
105649 177511 383
192280 129215 383
139425 318720 443
220311 726080 509
536225 364579 470
232394 572325 470
787079 624908 509
772744 197735 509
385584 425229 449
165041 741298 509
356426 380926 423
109203 864835 525
653443 250304 509
289908 751495 509
233760 887280 525
415429 345196 449
87931 213747 383
499322 444989 444
898082 630637 525
579918 840806 525
432832 301524 449
651202 279393 509
498189 184195 449
57213 693299 509
