292410 886952
422078 374075
126163 248747
928332 270799
544313 770121
623665 635254
855589 862133
738634 605682
950479 340072
598899 55129
418386 17982
128730 382336
116657 910385
719546 621984
384040 287249
910857 269685
431702 940862
825938 800779
743386 615422
327878 463708
206997 96641
20744 596172
602142 587386
951182 722543
356545 993925
507904 54269
776376 827594
380001 240964
766681 590676
127062 533969
113811 38202
262249 90986
258336 500991
60937 159436
702565 46966
168195 186466
163982 816151
800484 611637
325225 12417
905989 147323
593511 427012
170854 664584
554453 808355
228340 661967
667006 872870
654007 279
456775 898872
55451 322327
707055 940840
720197 354806
686332 721698
622169 358174
49749 270412
229245 479187
902925 93413
534071 330351
102485 385613
242819 53613
388194 359100
726816 346045
393449 244571
27037 461928
932489 593864
212024 220981
620725 147564
21059 209676
301294 135254
924153 345433
381324 767601
7204 839903
333480 276883
187598 898444
859973 687307
65978 880803
772058 561547
180099 225606
355696 844559
999683 718513
197446 260518
810049 974042
956410 383345
515409 214776
678023 286953
187532 736367
718983 672485
153275 549852
145014 288743
694431 391639
803166 831421
354201 109528
749919 842737
524534 743532
500523 889959
301312 724321
635162 335813
368955 911824
656490 271448
51688 733402
481426 633214
817852 580349
649804 782097
387611 806284
678125 980993
219545 439182
952894 758219
117528 934960
234005 706384
346135 58025
720234 100044
99648 966803
715024 772483
573651 507016
973297 330387
761446 240489
834129 892790
902841 306070
582064 455411
803187 120650
874363 591856
775119 197165
480971 441154
52656 812026
242901 822138
80942 319234
730229 22162
737409 937283
356785 736092
119330 926072
400610 658950
331736 339272
920776 249326
59467 634757
829191 348613
970887 34410
197775 288946
118984 494235
608582 310312
334845 89427
735036 832710
825303 977875
639446 181333
605703 221007
959479 400464
964354 308888
417077 910081
355311 118778
997305 634849
85072 800508
30946 490471
553274 614499
812114 413216
678700 260086
166154 314284
470733 455155
864118 162049
576213 652083
930976 760689
177811 165928
56668 896296
504386 472341
974721 818737
296616 165773
75094 45442
16723 579887
252555 15789
741153 262087
272549 788378
476066 74590
22001 494887
492575 153660
699536 425666
726753 219176
863545 490828
185916 498186
384298 702476
557504 263892
547536 967876
628544 48285
780405 168069
180230 334896
311707 5874
296051 915106
385710 563213
871185 222603
934677 885885
165359 899378
88576 262768
256169 68850
975056 63720
345079 315390
6850 539673
488064 796658
308411 762832
476622 179624
392417 186528
135712 592900
566193 357291
298892 693454
796893 479863
750688 525252
425926 855495
952185 375366
759340 620273
612568 794550
479444 239378
333431 755075
443944 134578
793348 695978
914193 208755
744924 32812
123341 381657
798478 932201
518979 918850
105649 177511
192280 129215
139425 318720
220311 726080
536225 364579
232394 572325
787079 624908
772744 197735
385584 425229
165041 741298
356426 380926
109203 864835
653443 250304
289908 751495
233760 887280
415429 345196
87931 213747
499322 444989
898082 630637
579918 840806
432832 301524
651202 279393
498189 184195
57213 693299
