398377 425767 449
477098 801386 509
732609 536160 509
36045 55618 340
824089 230808 509
966984 923951 507
818161 841092 525
861256 212026 525
187629 829102 509
410337 545093 470
713054 550492 509
348531 542435 470
950798 640702 525
688716 893986 525
272366 890571 525
922628 367257 525
854326 285793 525
538020 219727 470
563256 268625 470
467813 68989 449
647829 553309 509
636424 280604 509
532275 814115 509
136404 414119 449
393247 140411 443
358670 921242 525
397160 6599 443
928275 810776 525
242308 747555 509
216844 797631 509
683185 122995 509
24479 181521 383
958790 486012 525
352511 179475 443
775470 538726 509
232747 613692 470
5693 208235 383
500925 11719 449
360941 351919 410
685126 252308 509
910720 611859 525
552534 966320 525
611507 690999 509
146554 697401 509
772777 331855 509
867047 966856 507
853886 646805 525
112972 461226 449
214220 43825 383
134701 671776 509
753422 504433 509
976616 276877 525
697741 93125 509
784698 719300 468
557993 558420 315
268271 762915 509
773930 833754 468
258663 112117 443
763653 490728 509
97053 630498 509
321036 60467 443
584043 466462 470
865642 547369 525
392158 965058 525
122077 162706 383
353114 473859 449
467506 900631 525
805207 187092 509
641467 625829 509
875515 66452 525
349770 722188 509
159855 7980 383
62242 962244 525
154312 342248 443
223222 116055 386
45203 955202 525
811512 703565 504
303630 438321 449
58310 829181 509
682884 37735 509
684099 495516 509
445550 85294 449
640703 539099 509
312693 711810 509
197329 337614 443
409273 66262 443
665556 232506 509
246184 998967 525
195340 53732 383
159800 699617 509
158452 391501 443
915581 429136 525
783827 397921 509
180229 244075 443
379348 276457 441
285902 699579 509
191248 798024 509
627746 449073 509
192727 362802 443
453200 588043 470
626191 35896 470
476623 789331 509
821923 833527 419
804403 48295 509
312619 215780 443
774819 608328 509
532199 359396 470
468501 706469 509
323895 861330 525
211127 156066 383
822143 256613 509
479077 431518 444
484365 792486 509
158169 501682 449
167923 234531 443
153843 639335 509
51073 127056 354
699751 505417 509
259862 192516 443
572538 595098 434
709798 268278 509
615285 767533 509
572303 832745 509
695028 871291 525
729949 613265 509
350290 978319 525
853962 796287 525
772109 928955 525
232584 683566 509
112083 11342 354
559779 146739 470
909984 358323 525
518355 303176 470
510900 737147 509
915729 611928 525
101606 128005 354
807535 138987 509
762701 474584 509
243879 584156 470
755979 418765 509
946266 137109 525
565284 6688 470
381963 755905 509
964510 896806 507
983383 494367 525
117872 868302 525
466415 924145 525
307701 31589 443
527323 989958 525
373688 331359 441
554523 479718 470
358079 796044 509
861375 827313 525
389533 929797 525
83516 285225 443
602004 689614 509
656869 716631 504
945758 794591 525
994891 794176 525
144715 823245 509
334364 308180 384
860705 666161 525
46832 706202 509
666212 860090 525
26279 941664 525
607739 174076 470
180945 196097 360
990710 480877 525
150077 625020 470
887702 415199 525
113771 609828 470
434687 543546 470
163000 8095 383
639273 546300 509
682225 881116 525
667375 519473 509
554486 39630 470
569550 393336 470
636413 712121 504
285273 803075 509
869379 594264 525
402267 743555 509
256851 170033 443
449027 395273 449
760457 987752 525
440304 137584 449
697103 595403 509
424809 503948 444
541331 521489 408
897423 937469 476
631809 689075 442
452610 784929 509
568293 89763 470
471908 1714 449
357392 781966 509
510517 271140 449
293056 846823 525
772913 577298 509
809779 36063 509
236895 469539 449
87537 200574 383
885443 671734 525
868719 599047 525
947962 142599 525
312937 398358 441
574541 242330 470
265013 836745 509
363902 228165 443
282573 398696 441
675253 911124 525
678482 956795 525
405338 664416 509
901637 241352 525
783500 268145 509
775568 332843 509
292168 726445 509
802621 339942 509
72152 792682 509
62826 672773 509
533480 37771 470
236300 530801 470
557044 376617 470
706682 390343 509
269946 238393 407
568436 470048 470
597361 333619 470
242321 271382 407
712733 825231 468
412107 761259 509
295597 876289 525
848599 466769 525
344363 260187 407
418008 343690 449
59084 216099 383
405147 889358 525
684729 107635 509
935936 957099 507
824274 846478 525
233750 544744 470
632372 983939 525
483202 944174 525
60207 102643 351
148449 317632 443
961971 659829 525
582219 434924 470
691297 747013 504
185268 480579 449
597172 216464 470
927735 8402 525
776343 111336 509
230405 590060 470
313701 833952 509
423621 688479 509
804919 669331 504
876650 581424 525
403734 489186 449
910078 523428 525
714716 302494 509
105548 562026 470
596162 587810 403
471989 239743 449
138659 622727 470
