29847 905309 525 
447039 679892 509 
766885 535567 509 
69066 998585 525 
539142 30206 470 
146577 604170 470 
755564 189513 509 
406884 845648 525 
225867 128946 386 
665184 612113 509 
120056 563995 470 
572765 11840 470 
707138 55000 509 
447044 281993 449 
604630 337729 470 
526496 43377 470 
233920 616662 470 
79611 719787 509 
784917 444294 509 
855299 888315 445 
586447 109965 470 
239397 625854 470 
454752 279864 449 
690919 318871 509 
829729 138730 509 
147857 185787 383 
103888 565381 470 
608276 41860 470 
719612 754568 424 
535978 710125 509 
410371 913455 525 
707191 941022 525 
33777 219161 386 
858850 102973 525 
256739 288975 407 
396803 824104 509 
869538 908809 445 
172752 83156 383 
125382 934864 525 
994583 121350 525 
367827 812337 509 
324149 143031 443 
317720 771376 509 
282753 815413 509 
572343 965535 525 
525213 204423 470 
550030 729866 509 
11397 891363 525 
787913 196773 509 
361176 285419 441 
20104 113464 354 
45825 231750 443 
739434 203501 509 
825303 320512 509 
688456 859863 525 
734006 750167 424 
919387 802802 525 
465289 40192 449 
277866 672836 509 
357167 162796 443 
235095 409303 441 
784501 392699 509 
954720 325828 525 
365031 427048 449 
422091 669906 509 
351260 507430 449 
836593 630221 504 
49586 999281 525 
966610 882871 507 
3663 76768 340 
842129 807850 525 
486450 971690 525 
174908 457605 449 
747998 43404 509 
908270 438503 525 
711481 867504 525 
559273 389396 470 
377150 332165 441 
417015 842716 525 
789414 980124 525 
250859 292924 407 
212655 716327 509 
595210 413300 470 
604610 568616 434 
831026 581610 509 
500924 719828 509 
934644 335232 525 
515988 724581 509 
926526 913682 445 
381192 159184 443 
438322 278559 449 
668076 744664 504 
44778 331016 443 
101503 462007 449 
267752 532777 470 
485142 767498 509 
228626 414813 449 
967603 821281 525 
988539 279820 525 
997102 886964 507 
687903 239338 509 
621120 338670 470 
420502 908916 525 
228334 980437 525 
682840 405225 509 
793328 606173 509 
464637 34237 449 
732130 826864 468 
94029 709506 509 
739964 303903 509 
883084 106005 525 
306197 615073 470 
561777 115144 470 
119773 239835 443 
966493 509867 525 
393509 214283 443 
119380 793730 509 
694812 981392 525 
812689 482175 509 
876041 735662 525 
831129 215395 509 
792421 868946 525 
139985 15610 354 
404536 753848 509 
91912 173570 383 
112326 997556 525 
970589 524747 525 
352530 332922 441 
920953 481856 525 
804003 248795 509 
344812 482098 449 
694431 409876 509 
144764 174974 383 
802225 262421 509 
254583 581396 470 
106966 718179 509 
545180 311812 470 
902215 913723 476 
839935 459497 525 
985802 533964 525 
859702 637402 525 
290250 135899 443 
945388 514954 525 
651479 664872 429 
758133 729070 424 
954584 711010 525 
287144 272602 389 
465429 626960 509 
322250 545073 470 
654780 359322 509 
920700 30609 525 
498595 598181 470 
807810 803449 406 
588447 453708 470 
554405 211001 470 
137827 35268 354 
687262 158169 509 
158853 867832 525 
207124 524981 470 
973090 69262 525 
615022 720859 509 
869760 159174 525 
708268 737057 424 
836141 124584 509 
118390 547127 470 
642347 962497 525 
22178 756016 509 
938934 324102 525 
590522 752841 509 
768108 342698 509 
304273 649671 509 
754435 503147 509 
290122 689057 509 
37752 868903 525 
399666 369848 436 
79640 780083 509 
27867 312591 443 
553285 193397 470 
757637 585633 509 
553959 280187 470 
341629 902515 525 
621173 366798 470 
626481 978826 525 
94847 751263 509 
370814 336913 441 
410193 858197 525 
15979 714395 509 
950969 496333 525 
136380 339975 443 
953488 34578 525 
190298 5439 383 
569320 631584 509 
256060 692767 509 
525188 883683 525 
242879 411670 449 
237422 372556 441 
36458 266037 443 
981554 274208 525 
18876 136000 354 
307196 954320 525 
971044 9038 525 
575751 294887 470 
452926 76335 449 
