293357 748547
173568 679275
379502 692263
355672 66868
587910 94490
756174 62528
836106 570436
185980 319241
371196 147921
870467 854901
715787 527883
464560 244885
113087 509000
183251 103442
843893 209157
877706 154257
160284 355805
568163 604944
621890 962249
613508 124683
457772 639850
779230 156810
694972 661069
936336 999162
204762 628535
772903 276802
580316 342006
722313 869508
826328 994285
143762 489844
167892 32332
408247 512820
76046 91178
972160 950521
552855 847775
582975 495273
688590 156094
896657 917072
816580 294841
957074 286211
408498 234546
494650 363223
321216 286904
705148 691564
289852 656757
234377 748476
450584 28358
831406 686666
404882 863801
944440 610054
263092 53261
408277 448811
814115 810657
844588 591398
549617 654545
932392 136439
814565 284956
305529 446028
960635 133074
60775 468709
6723 83574
274877 654772
883380 282853
573748 689840
974940 921123
806352 915523
46303 673362
662148 483271
412397 309067
725165 700278
726693 805884
725442 560914
308097 104141
243292 384599
160626 443851
408132 683916
744956 505321
925455 590706
235498 336346
207923 557907
360709 921953
12042 683056
830724 7019
80951 741399
477235 655102
221921 622679
993682 487247
518641 486623
48987 937461
787281 41088
631068 242112
314805 849448
128974 105167
199898 921100
716448 755644
294500 76861
736213 244497
523882 76145
207771 696271
147574 589721
472655 453958
905415 322262
432816 248486
192260 690040
334766 435948
296369 667597
857145 999970
9885 785411
466138 846893
393717 762786
589421 779130
30530 724467
132177 893596
700109 838438
561937 192747
292248 202899
24959 936919
161090 47355
951616 626766
833438 481467
525499 419626
210720 989269
749019 445816
238730 799781
639623 721453
110428 966409
14418 323079
95814 624049
729664 16190
254693 122579
19581 109608
778251 729358
490970 640541
232677 336792
889807 707004
575360 115236
161142 67972
144603 994588
304139 972540
423230 357239
340691 554099
813208 651090
615695 397824
201172 138981
224242 806928
862013 254417
392734 655264
807016 39543
312391 612482
133085 842077
559607 909503
368951 188084
574649 819395
36709 326118
222772 510134
20121 376336
496933 368361
995893 269442
953249 845522
861807 58047
422896 190629
595851 672959
346412 755948
459085 201163
61346 169376
575969 637279
887096 310800
77136 214148
875947 789107
230760 796318
738149 952927
454307 931526
56788 694915
310566 686567
243688 192816
38102 493100
906806 264593
448612 164196
832499 332980
633094 810670
324253 411019
37823 34090
622829 246246
840415 265454
566894 840697
871244 351489
113740 657763
456087 355290
201415 774553
24247 257227
992899 681899
633590 298778
21138 415093
406941 758690
3659 261524
455341 899055
260640 565009
899999 788391
322271 411455
120326 598040
628716 431819
823355 838517
316136 572112
667603 819024
63241 575906
960752 287847
641972 670343
253284 697359
210206 322418
232135 998725
137043 978589
892149 112305
208880 572021
150009 575503
132632 661768
629236 560354
892153 139588
668021 407256
580581 87971
26789 430801
242103 493837
194518 383237
54203 933978
61132 178061
