677535 122660 509
9793 392309 443
693318 805292 504
821858 94513 509
891784 397621 525
256495 885280 525
747816 918353 525
247872 687042 509
717330 296807 509
826827 114356 509
816314 382952 509
458822 982109 525
904773 513882 525
235687 822734 509
883511 787491 525
706020 619507 509
668619 531041 509
274788 577300 470
259312 162416 443
365207 716641 509
55924 162268 383
233732 584874 470
303348 507085 449
91961 514255 470
2780 232090 443
714400 420024 509
850987 255418 525
378084 70508 443
456728 905256 525
184840 341024 443
763915 42996 509
340232 137127 443
321773 439386 449
463950 438760 444
90218 771126 509
616098 390763 470
957341 169904 525
599316 22170 470
45797 512546 470
39740 22756 324
821096 123756 509
378583 521846 470
85114 727447 509
476240 156305 449
933723 846079 476
266880 888410 525
706012 218079 509
187070 993865 525
313183 829297 509
20096 203056 383
74501 850532 525
241358 320496 407
388439 868149 525
218055 314583 443
513365 46309 470
459462 860515 525
790230 247 509
643151 763955 504
604235 164208 470
262387 474614 449
784553 611593 509
874022 455855 525
920360 152865 525
178723 659426 509
157728 19884 383
573193 579542 390
449446 487465 444
530978 28089 470
553248 295197 470
285278 380120 441
246637 110000 443
220502 892252 525
821719 142906 509
933453 668242 525
563779 131220 470
564415 293156 470
16326 770905 509
262176 85058 443
733285 724300 380
565200 452441 470
442822 784591 509
324598 685378 509
867745 26714 525
391728 401742 405
977900 552611 525
586260 278909 470
428448 332803 449
629972 167798 509
7428 336432 443
194368 461946 449
711028 178170 509
97048 150975 375
252496 199896 443
982524 854385 507
927458 335205 525
478286 306881 449
461980 257926 449
39972 46802 314
279241 179236 443
220082 105643 386
732553 277896 509
176931 705581 509
20528 899503 525
486499 696883 509
109257 15710 354
335624 781185 509
492521 267645 449
583920 679140 509
286452 314752 389
854234 641202 525
366691 597335 470
760484 415711 509
306889 994559 525
681808 881590 525
50057 169847 383
109473 841493 525
693251 862479 525
492172 411340 444
956783 535220 525
333554 69617 443
811558 374147 509
525164 80636 470
475221 650840 509
814314 363726 509
556885 310563 470
287038 355258 441
977324 71075 525
337911 474320 449
200199 748877 509
279719 767615 509
483130 312583 449
579997 295601 470
668668 869029 525
206085 716401 509
254811 24964 443
595332 824896 509
707789 457390 509
524903 623919 452
841583 55729 525
345701 870521 525
906204 888245 445
294815 791045 509
336989 672105 509
167513 661093 509
35164 403911 443
834941 55572 509
237222 180298 443
845833 661276 525
534535 142045 470
10757 253001 443
767239 285247 509
426982 376911 449
872681 527275 525
521734 929125 525
709098 885185 525
863493 480641 525
524702 768989 509
663353 214603 509
256339 715881 509
312639 614018 470
243688 305193 407
924308 796541 525
490632 463114 413
715117 698379 504
45889 167437 383
770164 729723 468
594517 125987 470
514913 93662 470
503018 948342 525
120175 233688 443
209011 292149 443
893003 331058 525
955381 984230 458
283033 258679 407
231248 555644 470
295505 65140 443
740565 942015 525
804416 609517 509
734752 256466 509
207507 867895 525
1025 404270 443
460036 247781 449
179926 957260 525
25386 934476 525
797244 22499 509
697358 398923 509
288782 334615 384
189669 612814 470
543295 926384 525
412114 470396 444
891940 624111 525
910318 892908 476
294919 449547 449
813261 155876 509
27033 225566 386
637285 668175 442
986107 300648 525
760526 742169 424
321202 669811 509
437851 244314 449
525790 326995 470
623871 348489 470
422300 143048 449
774977 463149 509
387558 23368 443
115400 113486 305
724948 796178 468
421930 741216 509
502307 806237 509
39965 881264 525
553017 297152 470
843839 946117 507
605620 197818 470
982373 599559 525
651760 47134 509
672279 500378 509
220537 253832 443
606843 904443 525
122174 233652 443
202847 524357 470
208817 990756 525
977827 474495 525
956768 276325 525
170049 539647 470
986126 627926 525
634203 332107 509
321120 606568 470
637733 716944 504
772700 802271 468
462834 668096 509
207041 239907 443
549412 179292 470
822555 77564 509
346187 728521 509
712164 113066 509
771368 850609 525
921124 277415 525
761356 826031 468
118206 491018 449
397984 278378 441
236996 338033 407
59318 469652 449
909707 508133 525
448090 566559 470
237532 296867 407
480909 138502 449
247081 583607 470
333505 930989 525
764084 3698 509
926068 518017 525
158953 210081 373
229875 533175 470
513212 516669 395
367201 940118 525
