900514 499581
941205 695160
999173 87375
679878 814220
264896 282162
148550 673423
652011 178795
700701 415741
877251 516584
735198 832602
358857 663241
236491 693358
211561 647810
122522 548836
458374 39499
65832 507486
653301 545889
804193 881705
694549 871160
81614 525649
952403 819532
800176 838113
684008 162115
226863 484961
354989 738070
569614 659909
837635 393168
99139 974907
911131 714136
649984 453048
699239 282512
27293 326495
920504 219884
873706 616446
768974 735203
774443 989483
823643 116728
273753 392593
984390 620984
594907 496987
74678 531926
8477 716077
974528 396946
787637 77753
405293 202491
250370 341064
460489 666370
526907 459278
388492 858033
351571 58160
891206 79886
938975 919940
933550 571568
76370 187665
688131 480566
742557 575676
679156 829996
994713 930967
480359 430909
422510 739412
644305 388901
730080 175108
481433 491323
758203 830845
40837 546685
877105 169631
11054 210643
909610 413897
143070 282853
850122 666459
248593 39388
583796 737306
705229 963367
595433 775123
500154 31990
579941 236586
164589 244738
286955 369922
315094 577268
642518 722869
336364 358023
161891 664818
837774 717141
447146 337115
242122 583664
190219 755638
74212 206971
857490 615410
382060 288236
858991 945759
180813 872594
832014 339543
719781 496786
957335 150566
648320 525042
536802 488752
301782 263711
857476 912994
371933 277660
889773 887227
891483 834019
449915 45105
314170 103996
683045 856353
25372 449317
658764 804561
703720 104047
938921 848675
491412 788328
14793 443667
623573 60079
158256 253235
97373 686558
366969 66269
408955 124042
486543 593241
875726 311542
691503 969467
518239 932035
803063 525148
499286 128551
849987 850075
211688 99785
476439 41122
464684 42948
298509 588249
992232 201327
302483 355664
672122 959770
862522 699199
668029 486004
943527 463164
774646 57771
202662 865025
527243 501899
367454 753012
981257 456813
305399 625096
989450 498377
928609 163244
727594 456759
131806 25119
192247 549836
106422 485578
635455 754414
265382 980339
370303 558377
64437 35385
31089 548520
712000 688853
177735 144389
564413 483712
248173 266816
325 308710
512381 593022
413468 377855
551810 691473
738553 833516
545057 496621
910503 724298
458323 313028
417990 968461
117709 621850
937144 718491
131686 70360
248497 74135
924017 178370
187039 312852
549745 242575
659012 97634
705214 104018
311431 798251
347046 240960
233032 391829
366208 309365
969338 573808
850055 263151
557720 901342
338616 683225
338326 646564
352294 124430
25332 346293
530340 232446
34104 261531
138071 264851
275817 829596
176356 228111
386157 805134
105352 547833
734741 361562
567179 140297
473196 963030
336431 487381
791837 339989
662904 222011
659863 319284
265809 299258
433015 361061
220762 464142
307278 936169
124153 756012
4576 194466
322550 147912
485848 699136
877829 779916
525413 445242
848588 456591
900493 324641
493843 679466
196960 970147
604116 98046
