128464 458922 449
315947 925515 525
881507 281447 525
11470 595594 470
307612 281699 389
772322 60917 509
824460 785829 468
189030 71472 383
83173 777782 509
511182 29037 449
950654 393481 525
834527 62645 509
237860 158113 443
97723 939901 525
437466 939754 525
161040 265490 443
757591 692885 504
766053 644396 504
455729 368077 449
994899 498974 525
254375 553548 470
838120 404233 525
259428 167589 443
205413 23318 383
86404 276365 443
436332 195771 449
79419 315736 443
604814 756918 509
94813 654802 509
145559 65419 375
465779 405670 449
863654 183468 525
517979 668784 509
311622 401405 441
422026 585079 470
288183 445148 449
287965 548233 470
386571 391245 436
893990 51618 525
404875 519351 470
818421 996386 525
900520 190354 525
604238 612614 403
668991 772512 504
943410 613730 525
171650 370666 443
55684 36908 340
403006 889527 525
837649 601621 509
730566 152408 509
592320 154367 470
211405 984632 525
612600 236726 470
987180 122829 525
236760 207206 443
385989 203963 443
853079 865831 419
523326 989394 525
106788 127312 349
599762 253486 470
682122 277474 509
575649 118354 470
230690 730362 509
215410 778322 509
972391 675468 525
471128 428709 444
15911 200873 383
722159 834410 468
282475 756178 509
92250 591461 470
383074 335925 441
376135 344919 441
99605 160761 383
376397 7982 443
83619 536909 470
849580 801918 525
636080 105196 509
368193 980587 525
262969 222939 443
880607 204165 525
866540 806883 525
375545 984911 525
834009 749063 468
156052 683149 509
152254 454195 449
715490 960112 525
259124 44598 443
543010 534650 408
689345 199815 509
521619 922689 525
386608 422883 449
977825 523312 525
458344 254295 449
578764 735232 509
989678 592064 525
608695 685010 509
486028 632597 509
627647 762259 504
925722 9805 525
438123 86731 449
372834 961794 525
124564 643563 509
990933 589943 525
736726 770091 468
119227 761573 509
449936 736107 509
101055 749936 509
758798 898815 525
535691 153988 470
592410 559499 434
511109 243253 449
29196 533288 470
714051 794540 468
881451 716064 525
526083 578894 452
500090 790926 509
79845 430615 449
766996 783226 468
942260 209609 525
765610 398886 509
308418 759669 509
820379 926819 525
599705 643864 509
610185 40935 470
284592 737270 509
179001 336392 443
728925 678422 504
891908 268791 525
523387 416471 470
833568 771578 468
745391 799135 468
995855 825129 525
986670 8299 525
528555 813832 509
447673 179261 449
702362 568977 509
336993 765115 509
115848 495426 449
354292 953552 525
472433 439766 444
560533 916830 525
640262 209827 509
350286 20976 443
179583 132252 383
451053 96972 449
801163 537600 509
477326 453604 444
400562 459665 449
752936 489995 509
604354 641514 509
330587 934277 525
324818 242941 407
234849 541761 470
465941 520795 470
657939 523071 509
418821 961451 525
502043 231320 449
466010 691603 509
202928 376556 443
470860 494243 426
198842 318874 443
217977 826242 509
2857 585893 470
914801 782654 525
897410 828505 525
408480 590412 470
770325 704315 504
141090 578639 470
700450 396973 509
591213 864079 525
485465 608168 470
827847 421082 509
309576 79376 443
543044 856131 525
860873 536237 525
422038 316627 449
318846 84157 443
605754 114851 470
117817 869337 525
361035 77817 443
554092 491421 470
704143 53568 509
214165 853798 525
346207 180238 443
480755 161101 449
883889 842125 432
747689 649012 504
316545 353246 441
212030 277444 443
51998 750346 509
196105 122030 383
980961 357120 525
376366 588548 470
558457 944510 525
318697 172605 443
172588 51261 383
261210 529290 470
964213 272407 525
692854 195588 509
602909 569122 434
152263 760807 509
146763 705398 509
851947 446134 525
895973 640977 525
440608 826741 509
331071 433644 449
237681 810491 509
162482 645269 509
104163 209360 383
235167 566453 470
821826 171911 509
558150 795311 509
606699 238351 470
429362 951535 525
745488 639268 504
694030 886553 525
660607 625715 509
294701 204856 443
543844 90649 470
911823 791609 525
336239 800733 509
557059 487635 470
322510 165241 443
355507 54176 443
910881 119816 525
641474 801388 504
746278 369702 509
389522 594885 470
370670 830891 509
669707 496097 509
555272 837738 509
802140 904489 525
146230 735941 509
508173 760106 509
998147 241365 525
17130 576644 470
863352 680010 525
935875 86840 525
546034 293033 470
849852 822977 525
774345 61123 509
494592 595129 470
565553 822742 509
725694 980689 525
252332 861296 525
630793 226387 509
651114 563136 509
588324 712691 509
604942 432989 470
36451 267291 443
71545 868889 525
148542 328839 443
905440 225633 525
111715 598427 470
31172 224010 386
246971 592790 470
