330700 95881 443
627271 113606 509
65570 122516 354
433665 473526 444
783261 770844 437
450362 526921 470
944313 393720 525
195309 166476 365
712248 580625 509
568214 874367 525
986479 573331 525
878432 817328 525
25653 344213 443
322437 529403 470
300500 566034 470
479705 121008 449
545560 423758 470
285880 403190 441
292400 172462 443
266173 618576 470
983484 765236 525
939804 701005 525
890178 715245 525
643948 757417 504
225372 977962 525
38285 622315 470
410647 7144 449
767642 726362 424
577531 294226 470
5106 516432 470
165750 471411 449
371984 215828 443
865847 886903 432
634133 950083 525
688391 566678 509
744985 402901 509
228322 690629 509
717746 216880 509
908028 352022 525
114723 111945 323
505172 645319 509
163446 339450 443
220969 126753 386
840493 5167 525
64566 906662 525
394290 873728 525
562277 735928 509
915046 473869 525
716359 187933 509
833793 919754 525
923162 831326 525
545811 150086 470
238995 125560 443
666843 709143 504
932134 817574 525
201960 684934 509
962663 188461 525
485083 886939 525
730348 760064 424
968718 522374 525
17637 758004 509
416673 538164 470
369619 999982 525
945787 145550 525
402967 270016 441
503419 737686 509
183307 793030 509
858372 706103 525
360310 470831 449
684779 515871 509
901893 647336 525
813913 842651 525
878129 637023 525
400157 278338 441
446995 989195 525
275253 962077 525
900207 736308 525
499364 567753 470
356947 388940 423
288718 695418 509
570234 385496 470
668737 780465 504
978625 477455 525
503220 159039 449
693468 39262 509
177785 580972 470
379543 85366 443
440120 291287 449
542443 527441 408
302940 123747 443
842131 300657 525
221023 243106 443
304609 323787 384
406642 224099 443
181682 175963 365
846495 476160 525
798458 471042 509
69695 118580 354
37875 813958 509
476507 248243 449
217766 924560 525
334276 877972 525
600999 882693 525
390759 215094 443
57048 943591 525
906620 977867 507
857778 397788 525
104792 122987 354
29350 887886 525
890000 93858 525
304585 541372 470
363807 581056 470
70043 778859 509
520062 254883 470
720207 26018 509
777760 811857 468
752802 708305 424
895744 310812 525
888234 197585 525
659546 804556 504
940272 732070 525
632929 333073 509
777278 651745 504
495094 235201 449
96018 921050 525
552662 535378 452
622181 427118 470
67489 777629 509
844333 183609 525
896560 874092 445
920527 183060 525
280999 464471 449
574116 209314 470
854879 404783 525
701600 172987 509
194188 48248 383
362355 295358 441
63127 479221 449
175550 450858 449
846221 48600 525
266018 372569 441
15101 332071 443
926912 239187 525
608177 169245 470
535301 496460 470
879258 327908 525
272645 450641 449
823411 65094 509
218139 296071 443
156252 426616 449
916495 198494 525
847240 660903 525
810919 351337 509
766559 872511 525
286730 723482 509
854103 306984 525
708086 995772 525
850164 403263 525
538899 7652 470
837250 173496 509
204667 421451 449
782384 182024 509
179257 255029 443
870506 512694 525
940328 270767 525
355380 485126 449
505114 834862 509
111035 193609 383
783463 995104 525
399361 979878 525
641015 201088 509
908980 79617 525
701695 997039 525
263731 321009 407
686546 943603 525
785195 368302 509
229411 369692 443
211350 9762 383
293621 274700 389
829785 624206 509
649421 933820 525
233310 116563 443
313876 651444 509
947533 716513 525
514680 863555 525
848452 621037 525
970024 700433 525
140928 595491 470
989143 584576 525
767766 675191 504
450284 673861 509
16264 187542 383
429474 868273 525
913539 37179 525
589043 786720 509
605744 798308 509
817696 64508 509
697664 535367 509
154244 668555 509
114770 458633 449
871099 265851 525
601128 713642 509
716077 849653 525
976206 999849 440
118728 91426 354
452940 603598 470
213347 431131 449
696649 313450 509
852008 167205 525
809900 704427 504
437163 522330 470
501676 824891 509
585762 654977 509
921797 984952 507
253923 865987 525
216330 824980 509
604045 399986 470
50125 947453 525
966021 249217 525
128751 397677 443
439042 289331 449
832801 669873 504
380191 130243 443
326101 853722 525
930282 328167 525
574169 591182 434
374178 851733 525
531386 24395 470
230314 894005 525
480180 700104 509
440462 258190 449
686123 63395 509
525193 514816 439
372948 747364 509
28729 778223 509
23680 466031 449
113673 912265 525
657139 191133 509
415989 985110 525
889561 293639 525
930700 571676 525
422240 982649 525
459600 301755 449
390724 942843 525
210963 278254 443
