570524 201716
849699 3565
250507 773109
436681 901667
176408 654962
894217 964934
57403 503363
443378 748263
608319 320649
355614 388026
57542 926552
312603 631399
870764 571160
983202 118254
535905 918226
502704 794873
17200 285758
261550 161558
353285 182649
516798 227991
384479 980099
166386 482385
835774 505700
673572 836851
232647 250967
804262 145267
573778 655973
604994 313267
849718 456345
195359 207772
15269 987167
904079 562443
254835 579398
965495 983815
455325 356177
965645 650210
711692 261137
306434 858875
799232 797662
746619 228516
441071 417033
691887 486663
258426 765926
515361 91654
194008 852259
759315 337784
628102 942978
317859 580
590723 689985
642834 650228
403692 799230
842997 416744
134121 832457
786195 178654
524442 806964
894790 424164
414637 956346
203930 411564
355482 62518
329487 388421
410084 171499
857164 374235
969174 349813
589248 271167
903570 574859
891703 762787
668845 324063
946189 934859
546352 262328
825952 176260
662992 432153
688713 825209
173311 266444
919269 550544
707328 37848
611437 101030
782824 656804
890318 580349
661971 839183
313872 892490
662620 25948
274418 610930
361374 860018
749025 405573
816948 323893
497952 263421
244896 935824
931519 62538
86121 208634
969356 970769
325083 891244
93752 141267
380262 681022
508174 668005
77823 366816
372146 147736
398004 340509
137428 898342
14282 522194
850417 848733
333975 886422
42932 326582
164095 866387
286239 383174
334520 545925
594258 738791
957664 599626
976360 283681
546740 390289
798093 874173
146747 273655
320465 863724
666220 807744
390480 915238
631954 591697
707085 222446
146321 871564
401069 257791
891989 194528
12983 432688
749359 49957
769957 842766
883870 615776
290839 913356
663223 93810
412356 326488
525283 524721
572175 626691
937205 339435
240640 61685
812269 492004
829608 403345
452850 135333
635381 49275
660865 413823
442092 779255
485411 780065
527124 399003
759997 394024
948126 493101
741458 797271
679214 930315
239538 310947
11016 728435
862896 145224
668373 47119
212187 853981
845454 228741
401760 848652
205240 832528
195901 788276
157888 944323
406320 366685
383636 293521
95950 640939
116890 669711
348010 716123
611394 826719
79400 48761
406512 622972
26503 805064
409497 429817
51131 639753
855373 144014
97429 359336
437237 56647
478709 674170
736582 256132
965543 395118
481783 279557
401983 676956
830989 304121
877717 854882
139712 232659
845458 226783
785572 628205
246159 959479
3196 174995
285412 584868
756271 503658
337326 614280
978611 244254
297479 189886
705346 908119
296254 901681
728664 917369
297704 15916
972592 531740
815325 407604
785380 817974
141673 547944
996430 880966
143873 425081
795850 157964
338324 121398
193738 832741
565943 878230
178774 295215
44177 975385
239395 7649
903120 563526
574641 914164
139658 253057
86218 445843
791592 144536
120528 440803
424962 228897
458726 811102
890773 716610
90354 49470
741632 172001
272024 30515
924936 347647
405239 690209
235191 874969
818990 682857
100777 147302
488053 839611
20937 373134
486736 57511
748401 324898
252845 433480
361460 468389
449135 586424
414704 13602
823187 649847
657940 157138
309121 224337
472901 24512
596501 34954
890777 530853
137404 619568
611082 980536
781036 240846
752910 116134
548561 876339
267485 796520
525118 329217
971946 359943
952969 36163
394501 59540
360297 62254
672210 247480
515435 956387
311734 932268
733067 431610
354843 741158
282050 586717
869327 896088
791415 505666
608738 241251
111457 360341
332132 755994
13682 566524
850635 499456
60537 881393
210556 689431
871908 390901
98967 679231
448053 381919
721394 860593
239109 837658
141861 150210
195191 253157
716259 661146
