102623 191131 383
76290 753320 509
657743 166269 509
461080 207066 449
728369 72383 509
842683 698946 525
750073 853816 525
977287 246662 525
477803 288880 449
365889 219576 443
681230 596244 509
181714 103498 383
154967 69558 375
965713 921125 507
204305 190756 360
115183 249161 443
539480 647797 509
236862 749936 509
556779 707084 509
106172 484579 449
496146 186637 449
46998 54984 340
847645 270276 525
206277 407693 443
47924 98992 351
828908 754049 468
863215 466101 525
843197 411493 525
136332 144520 375
712618 952155 525
616613 73537 470
770227 194751 509
186630 133482 383
329106 174611 443
530109 49651 470
607800 116745 470
512024 199849 470
325647 335533 353
502847 6007 449
722140 629229 504
268741 101847 443
636936 836675 504
955019 942615 414
777427 990674 525
496218 547845 470
276779 323574 389
679562 8953 509
443074 468157 444
328505 613146 470
977728 824471 525
506274 297281 449
355299 43994 443
992135 821887 525
801674 21227 509
246595 971424 525
584835 932892 525
840359 60010 525
599530 330422 470
506464 187866 449
457015 46238 449
183592 647757 509
101385 821641 509
85159 419808 449
983179 173660 525
63119 36392 340
606733 758749 509
749231 86773 509
876543 58165 525
417769 105766 449
409458 419265 449
389457 701564 509
766230 826250 468
976893 887932 507
970738 988161 427
865701 245823 525
743488 744077 318
60534 751 340
502870 592616 470
129728 223355 386
131298 116931 344
805646 507264 509
779222 152692 509
332420 397868 441
798201 599188 509
996706 729074 525
974145 732569 525
591592 798466 509
156259 939988 525
606237 716955 509
445996 118575 449
747796 587408 509
319485 537061 470
131629 186168 383
646007 380659 509
131907 71268 354
860929 56369 525
177586 937962 525
900545 121349 525
180790 542898 470
549364 990888 525
944473 363314 525
726004 636649 504
457365 259774 449
440978 755170 509
437851 940605 525
208973 714136 509
990071 712941 525
882734 429887 525
64455 730061 509
922483 922484 83
487370 994157 525
831042 57678 509
212446 767057 509
991685 55630 525
654632 512087 509
436875 599893 470
141207 51897 354
246875 399854 441
90530 921693 525
273071 661131 509
448837 384816 449
522479 592621 452
976219 14746 525
974405 460758 525
205333 780315 509
865910 422760 525
308397 356246 441
179629 218306 386
770204 792351 437
426890 275853 449
678903 208979 509
285810 85537 443
345881 329667 366
519687 463259 470
27011 8493 308
942903 758616 525
241945 449923 449
793230 978847 525
697411 639302 442
746069 571097 509
960304 557443 525
716699 685808 504
397046 246357 441
597576 825443 509
681158 648383 442
302763 840088 525
762721 714326 424
421291 152234 449
476577 784882 509
864876 942766 507
438017 568423 470
683451 550716 509
437533 281810 449
311206 678628 509
510672 527779 470
852722 818696 525
247134 847564 525
950181 617725 525
863877 491499 525
585335 198338 470
960764 40109 525
951395 981056 458
513755 453979 470
370322 982011 525
716946 849702 525
208477 464133 449
530338 108800 470
764924 354827 509
454971 811388 509
410339 662399 509
62250 681765 509
130351 912248 525
891255 392948 525
695074 176642 509
42852 518882 470
716739 573440 509
861060 916941 476
849318 427254 525
27096 208691 383
243722 452986 449
611748 701249 509
795412 948661 525
666323 844529 525
300551 620595 470
513688 765785 509
230373 159745 386
176585 814276 509
822853 726873 468
753373 344588 509
164513 88874 383
460079 410434 418
430406 171288 449
111760 711935 509
483436 616851 470
526872 450748 470
906483 140740 525
127765 750398 509
744193 590396 509
55622 89428 351
891331 335039 525
175524 899042 525
305110 686723 509
337222 359799 441
479280 541163 470
749744 877065 525
667394 498194 509
694849 399692 509
604559 321651 470
540445 60710 470
267884 25332 443
673516 8434 509
25044 571181 470
433173 411009 418
823366 566377 509
372585 467167 449
518592 127053 470
226811 864443 525
53286 232799 443
132204 96380 354
103102 398250 443
502877 679947 509
782091 347588 509
31284 768725 509
190462 641216 509
957234 340673 525
970977 596470 525
872752 834293 525
920817 864091 476
435276 167795 449
80579 80600 214
