880464 723452 525
876174 156005 525
521286 135439 470
536932 268613 470
112293 984870 525
473606 830934 509
279346 926763 525
460188 461157 307
704914 328529 509
903619 743171 525
533379 681717 509
956406 990538 458
874886 64954 525
514785 70692 470
622602 165103 470
921942 444195 525
283566 230062 443
382805 972085 525
344530 156419 443
280197 125168 443
532082 6421 470
789890 209293 509
239860 523030 470
85107 294693 443
407348 648093 509
664954 166720 509
539464 942989 525
252568 717128 509
595720 907703 525
828331 961261 525
98080 649878 509
109042 764786 509
469552 995812 525
509520 799981 509
102376 234691 443
621042 56884 470
933877 615257 525
940711 609567 525
400432 756448 509
338604 973764 525
609437 684143 509
255594 675700 509
946195 325717 525
335061 814483 509
862298 353048 525
142772 781509 509
933050 230303 525
857224 363749 525
818607 75842 509
464346 339585 449
335391 25242 443
859127 354978 525
87973 972062 525
487971 603271 470
690876 127279 509
869365 607535 525
123386 796515 509
654668 613177 509
565681 269386 470
224960 562913 470
90272 62216 351
540936 692843 509
588114 558482 434
255815 704966 509
690364 243686 509
887941 596212 525
607813 186403 470
961425 948560 414
148314 327511 443
213321 7111 383
89460 651573 509
93826 965083 525
391696 4795 443
265801 115536 443
329961 144097 443
388878 500911 449
80825 777757 509
620063 840666 525
750759 822460 468
676642 553728 509
507496 106383 449
632034 23987 509
246854 352439 441
279639 338408 389
297122 689336 509
506415 537767 470
858432 934674 476
999681 12879 525
757964 214980 509
150146 828212 509
361683 398812 436
866805 159410 525
260823 852133 525
720603 128181 509
458254 359345 449
140718 123344 344
661750 107801 509
607378 503828 470
504499 690933 509
399042 672624 509
945476 128539 525
965834 126097 525
420050 553032 470
74777 436897 449
37383 130429 354
834215 586290 509
547334 876104 525
534625 461674 470
391737 668366 509
976883 246408 525
434047 650402 509
908747 998623 507
74430 871121 525
597214 973700 525
557491 353642 470
903012 738559 525
920077 683589 525
965443 689436 525
367119 760829 509
576695 235572 470
416358 42618 449
448503 330719 449
50271 647228 509
831250 184973 509
567283 264384 470
302731 172754 443
170275 122273 383
691500 800561 504
672280 48154 509
806974 638896 504
230909 717810 509
183953 448477 449
154181 502377 449
786773 156003 509
292762 773360 509
793489 705004 468
448468 982993 525
615100 51619 470
814621 735844 468
618829 734670 509
370491 342594 441
133014 449843 449
593440 514060 452
325106 275897 389
60174 913923 525
302489 698305 509
667172 628059 442
404244 595793 470
749654 754182 424
732707 597173 509
494384 116385 449
21911 165453 383
689040 153431 509
652693 378975 509
440761 76515 449
193746 722433 509
822830 735616 468
472853 537165 470
264620 98704 443
121241 767793 509
385793 964258 525
657216 350515 509
544155 564661 452
368202 627354 509
972018 826580 525
629798 184283 509
530627 341176 470
356947 420186 449
26571 306860 443
402469 434478 449
286216 242144 407
146661 102150 375
906368 70691 525
807473 192670 509
578600 786159 509
662182 543973 509
257200 829328 509
788948 841837 525
147463 908974 525
731121 273036 509
253659 685054 509
794891 763269 468
684888 981316 525
689929 225953 509
86297 461924 449
718611 934086 525
129247 228366 386
643770 208395 509
540025 305996 470
72083 361064 443
345202 787557 509
476237 742651 509
598092 701331 509
404656 488546 449
333584 614557 470
61562 534026 470
419954 928062 525
860721 555131 525
478915 602533 470
661233 61376 509
79380 511760 449
183447 709499 509
712768 189508 509
938567 960822 507
27780 875779 525
227960 951225 525
141616 401167 443
949878 719735 525
113429 92329 354
757543 35965 509
721068 22678 509
912319 708541 525
127973 886546 525
572817 568722 377
799839 201608 509
901565 221735 525
815554 671879 504
686274 148502 509
706392 902569 525
264786 951536 525
991836 829722 525
134239 893652 525
