826654 893517 525
732952 921510 525
919664 224080 525
125988 379640 443
174946 574338 470
413284 357181 449
247600 116248 443
857736 293057 525
951343 995709 458
441943 790763 509
373618 150971 443
149993 691719 509
965642 369040 525
811750 49665 509
316420 819150 509
794704 568586 509
802341 415579 509
533836 820086 509
293163 520648 470
254953 832465 509
607902 794171 509
193206 174239 365
767909 346034 509
74362 928422 525
349080 954044 525
297405 442532 449
34005 872454 525
184112 507191 449
521197 97245 470
94925 623248 470
611735 379466 470
514766 2695 470
499429 346218 449
561783 131621 470
818870 519524 509
823981 133992 509
358172 799567 509
642147 885903 525
693510 775682 504
250417 425318 449
614412 190492 470
713102 171958 509
412120 408683 449
519395 698031 509
783223 969498 525
888574 766535 525
329228 196224 443
742745 91563 509
165140 464527 449
880260 817968 525
356898 287360 441
622735 414583 470
987745 496426 525
188520 829364 509
773454 449707 509
584567 419166 470
191681 405262 443
677902 737715 504
57200 400564 443
64953 76319 325
45469 374682 443
203944 892702 525
839994 763463 525
430383 923314 525
777087 641102 504
819220 989772 525
780710 56860 509
817838 102026 509
491025 162973 449
491006 814245 509
721809 474313 509
787147 343227 509
752459 243269 509
728999 557846 509
997385 155546 525
111682 777525 509
587562 867570 525
610338 708443 509
414386 567517 470
767744 280404 509
273190 743484 509
780268 487446 509
229457 575743 470
505283 222454 449
973283 52745 525
135742 627898 509
566110 21121 470
720800 598074 509
243980 716993 509
428209 740142 509
50137 982013 525
71522 511364 449
516831 627102 509
826390 854718 525
672482 601373 509
738951 611917 509
794412 863281 525
236225 915536 525
275893 529197 470
306622 471093 449
386243 707029 509
416699 536240 470
731502 110457 509
305947 906415 525
106520 237729 443
79821 151170 375
267858 295350 407
419385 639502 509
334642 622161 470
248739 287252 407
959908 962509 414
185614 950342 525
146805 217740 386
742529 710225 424
861365 493828 525
727586 165086 509
167309 127632 383
940947 25706 525
851474 192148 525
975263 248178 525
72230 214727 383
179758 400682 443
945285 120846 525
196748 626077 470
479566 767247 509
230246 373448 443
467132 132582 449
210494 377945 443
279395 228408 443
388667 278862 441
46988 837803 525
99151 604748 470
350687 893893 525
425509 316210 449
681311 523531 509
870446 361641 525
422512 276001 449
112344 582156 470
776387 850245 525
475564 407978 449
755712 324722 509
589275 26604 470
16923 808955 509
144349 962043 525
955246 128589 525
581082 888357 525
828689 681517 504
875501 896446 445
749345 263704 509
691350 638107 442
402524 174381 443
941261 211496 525
791064 539673 509
128975 413717 449
120124 881018 525
868269 51847 525
665299 542565 509
283780 589489 470
338164 203046 443
848918 842915 419
105823 159361 383
856987 262140 525
841756 396560 525
906311 363908 525
850971 71027 525
562207 475304 470
931865 936028 414
105231 780260 509
874276 123605 525
722147 989552 525
241820 321697 407
541071 377987 470
762462 603925 509
191161 357537 443
228077 162114 386
766835 622029 509
603063 69476 470
731023 636449 504
773014 656646 504
248150 366619 441
175409 309032 443
136805 96251 354
494827 587426 470
862046 839391 419
174890 341349 443
953653 546323 525
150805 976901 525
833005 497018 509
119834 899139 525
774051 824359 468
884225 196796 525
583054 242349 470
71662 560583 470
1468 282530 443
202646 662081 509
545994 261032 470
883194 620864 525
504265 565818 470
558173 494153 470
539702 572460 452
125891 88795 354
565974 93424 470
938076 883035 476
973409 689096 525
386521 397331 436
422798 748539 509
323305 146735 443
341718 923339 525
612833 95830 470
808016 446234 509
293103 903007 525
703271 642820 442
113272 728704 509
159713 451389 449
602957 114374 470
42454 92377 351
622200 463486 470
983740 574123 525
350776 717016 509
409193 80533 443
765119 982550 525
370563 138339 443
685308 148270 509
211820 112239 383
442693 992847 525
446370 644017 509
615843 873451 525
