782087 491805 509
419455 606329 470
943592 674913 525
729195 481816 509
383967 529258 470
852857 118749 525
20633 472966 449
153722 137969 375
695899 805859 504
792364 514348 509
121851 200787 383
272468 790349 509
428548 413981 418
321320 313297 371
101586 677835 509
560665 26001 470
886133 22256 525
128267 67647 354
385013 521697 470
86182 435507 449
758355 222466 509
864858 560127 525
726573 37502 509
168962 695174 509
103855 557056 470
407832 184785 443
308051 757745 509
647645 590312 509
803691 227100 509
859491 769050 525
492714 686510 509
804293 784035 468
48092 352719 443
188403 423045 449
284373 464026 449
269616 419393 449
907721 170463 525
486589 387070 449
324099 519531 470
820880 261703 509
337642 992599 525
789005 93737 509
565558 979357 525
276721 827356 509
926270 543841 525
288361 263965 407
353362 680806 509
479581 284930 449
249269 596884 470
339592 609674 470
622230 385495 470
750199 678996 504
429202 776531 509
980157 725306 525
596420 193468 470
5560 919334 525
241072 248092 350
590155 82759 470
691794 78274 509
836570 673802 504
589777 465694 470
741951 376622 509
891102 53253 525
526157 715842 509
911184 920299 432
114547 756844 509
280505 816449 509
432275 877229 525
712777 983078 525
499641 180204 449
797050 324733 509
743148 23436 509
337599 300840 384
600838 661793 509
549411 398007 470
498726 445426 444
315044 333207 384
146005 739307 509
324341 675696 509
464795 847670 525
173714 570180 470
191262 888594 525
117246 827378 509
736450 828327 468
392393 744495 509
217401 332619 443
860707 697765 525
825308 73348 509
328178 165550 443
665716 760158 504
156827 803833 509
439959 195179 449
649032 817258 504
801415 416795 509
302690 169969 443
674744 381209 509
817913 71899 509
189495 549232 470
64492 313359 443
680731 436691 509
818150 166629 509
864585 586628 525
206296 580341 470
155979 904158 525
877257 420946 525
419767 771418 509
245166 215617 443
694644 109523 509
430717 887468 525
740327 907550 525
450649 604670 470
350364 669328 509
178809 517381 470
930545 66100 525
684086 416590 509
370891 663747 509
257899 883947 525
676925 153681 509
357145 245777 441
201545 202753 342
624082 207662 470
29724 26160 308
773836 136316 509
229197 778590 509
409182 118755 443
376278 668488 509
84672 883592 525
676114 870682 525
58377 965672 525
63357 610555 470
314252 865078 525
529057 133367 470
651288 710663 504
738528 150942 509
457942 498669 444
629525 877998 525
111129 927415 525
495449 759455 509
802080 573872 509
446079 268428 449
890040 583619 525
587452 830193 509
309345 548919 470
757354 507685 509
315249 154741 443
230736 523491 470
202906 258668 443
720977 616966 509
111603 205284 383
472449 110702 449
664296 184375 509
695956 877372 525
280162 214295 443
615717 992169 525
9646 486788 449
89861 763849 509
25814 208842 383
14917 538859 470
383628 621297 470
666395 464597 509
588192 790728 509
372997 285465 441
785399 796634 468
340232 762170 509
895157 52269 525
419556 11249 449
224850 4448 386
515423 130816 470
522585 532092 408
464814 861069 525
549867 750319 509
795854 359149 509
85144 264700 443
258464 587096 470
369904 6864 443
231087 229051 443
412593 696902 509
296405 410653 449
995819 467292 525
28737 902147 525
712382 318194 509
742616 202707 509
639271 104264 509
890382 270200 525
403062 825217 509
232826 508822 449
781949 884830 525
206905 473655 449
158648 389991 443
533277 958946 525
696996 855441 525
370163 317555 441
897437 465780 525
616363 421401 470
19604 517239 470
812323 753420 468
158241 933244 525
456212 938049 525
140551 972548 525
298679 432772 449
609304 17977 470
76843 101120 351
988185 311522 525
165675 706760 509
64223 828791 509
