162615 595978
674626 87473
785867 564444
938954 329648
764704 333941
197018 6031
254155 262925
549778 416935
683738 529676
537558 616212
921916 121528
1209 365193
758497 793984
903286 79339
48727 599036
969107 72869
78649 783737
582826 544735
75320 719376
557513 966486
247516 367276
299278 482018
360333 578660
684807 234920
277191 940040
283194 821140
983229 311755
823234 397950
389276 5570
852537 389330
766533 26051
541599 486537
786681 362600
785282 44922
804382 125974
295457 764470
368339 395889
94436 938636
769276 588865
536113 420092
163749 242948
89995 884975
915592 271338
285070 622529
694806 620811
572707 267647
719423 727913
870646 154211
357930 37005
416521 981561
186172 667323
397793 657980
838321 677206
916199 5689
143437 35686
357514 530289
855238 106343
710563 150727
235939 578984
254207 880644
988129 950918
12060 983977
50322 434737
391459 131179
148486 743534
937801 592618
830698 104475
673370 348571
328624 864937
900289 670254
386699 193740
979125 958832
590038 693045
175330 826649
448228 883339
937048 220572
407017 756071
139858 874841
217120 563404
696620 467067
893494 699772
341405 66122
216121 827246
338313 314114
820857 705788
186969 858781
866121 430394
86127 77312
742145 434604
247569 791230
582392 74437
41764 969362
344861 3505
175934 517616
538427 681226
461230 841636
847350 460053
721918 725698
299518 473763
828215 940343
254413 995153
914863 130145
618189 304602
665379 366453
679327 1671
934905 851039
766586 666570
483195 590157
153736 862565
91667 504449
454714 460034
938962 204689
760104 322229
298813 512860
533844 647964
740225 111709
158687 956185
141891 806330
910533 323498
508893 529924
208199 353667
33371 518377
914378 54950
906145 737220
405003 515829
423428 511442
704089 9487
209473 193500
32044 372146
999011 28718
121966 683301
691979 976894
664211 980694
605279 368859
680280 851396
415719 977854
675787 252807
304742 353402
457964 534663
851610 327737
45735 428805
806567 327646
670172 781443
780132 971293
974174 968745
677421 227714
809478 700574
489399 5444
827827 182853
878469 926395
457898 570854
330958 496925
988691 698658
460165 821736
270698 826684
645983 396588
113775 916240
129687 675195
824796 445592
470750 486586
210177 448910
10857 439265
542517 476640
757126 348585
307919 457628
348729 329794
667349 267037
744459 190060
125691 421979
559404 900482
976096 641068
963817 196355
473665 300494
731680 138977
286812 23971
34104 786335
906074 551601
322000 781116
133275 427453
506912 365582
410087 270493
547196 906765
702390 109494
697130 531233
752811 315053
941475 298768
761190 265504
887902 589899
565231 219164
978111 287487
371408 520959
349893 735992
8724 201885
87886 119470
81948 270321
835628 545759
643892 336332
278064 389244
14559 324550
813895 788734
670722 2432
276918 641640
473916 585134
133375 382297
102292 883392
363436 290549
18867 470219
749100 578868
191867 430120
279232 786477
301680 551684
644337 114033
238311 59932
379609 847308
292035 677370
